\relax 
\providecommand\hyper@newdestlabel[2]{}
\providecommand\HyperFirstAtBeginDocument{\AtBeginDocument}
\HyperFirstAtBeginDocument{\ifx\hyper@anchor\@undefined
\global\let\oldcontentsline\contentsline
\gdef\contentsline#1#2#3#4{\oldcontentsline{#1}{#2}{#3}}
\global\let\oldnewlabel\newlabel
\gdef\newlabel#1#2{\newlabelxx{#1}#2}
\gdef\newlabelxx#1#2#3#4#5#6{\oldnewlabel{#1}{{#2}{#3}}}
\AtEndDocument{\ifx\hyper@anchor\@undefined
\let\contentsline\oldcontentsline
\let\newlabel\oldnewlabel
\fi}
\fi}
\global\let\hyper@last\relax 
\gdef\HyperFirstAtBeginDocument#1{#1}
\providecommand\HyField@AuxAddToFields[1]{}
\providecommand\HyField@AuxAddToCoFields[2]{}
\newlabel{fig:Peppers}{{1(a)}{4}{Subfigure 1(a)}{subfigure.1.1}{}}
\newlabel{sub@fig:Peppers}{{(a)}{4}{Subfigure 1(a)\relax }{subfigure.1.1}{}}
\newlabel{fig:Peppers_mod}{{1(b)}{4}{Subfigure 1(b)}{subfigure.1.2}{}}
\newlabel{sub@fig:Peppers_mod}{{(b)}{4}{Subfigure 1(b)\relax }{subfigure.1.2}{}}
\newlabel{fig:Peppers_diff}{{1(c)}{4}{Subfigure 1(c)}{subfigure.1.3}{}}
\newlabel{sub@fig:Peppers_diff}{{(c)}{4}{Subfigure 1(c)\relax }{subfigure.1.3}{}}
\newlabel{fig:Bus}{{1(d)}{4}{Subfigure 1(d)}{subfigure.1.4}{}}
\newlabel{sub@fig:Bus}{{(d)}{4}{Subfigure 1(d)\relax }{subfigure.1.4}{}}
\newlabel{fig:Bus_mod}{{1(e)}{4}{Subfigure 1(e)}{subfigure.1.5}{}}
\newlabel{sub@fig:Bus_mod}{{(e)}{4}{Subfigure 1(e)\relax }{subfigure.1.5}{}}
\newlabel{fig:Bus_diff}{{1(f)}{4}{Subfigure 1(f)}{subfigure.1.6}{}}
\newlabel{sub@fig:Bus_diff}{{(f)}{4}{Subfigure 1(f)\relax }{subfigure.1.6}{}}
\newlabel{fig:Baby}{{1(g)}{4}{Subfigure 1(g)}{subfigure.1.7}{}}
\newlabel{sub@fig:Baby}{{(g)}{4}{Subfigure 1(g)\relax }{subfigure.1.7}{}}
\newlabel{fig:Baby_mod}{{1(h)}{4}{Subfigure 1(h)}{subfigure.1.8}{}}
\newlabel{sub@fig:Baby_mod}{{(h)}{4}{Subfigure 1(h)\relax }{subfigure.1.8}{}}
\newlabel{fig:Baby_diff}{{1(i)}{4}{Subfigure 1(i)}{subfigure.1.9}{}}
\newlabel{sub@fig:Baby_diff}{{(i)}{4}{Subfigure 1(i)\relax }{subfigure.1.9}{}}
\newlabel{fig:Cat}{{1(j)}{4}{Subfigure 1(j)}{subfigure.1.10}{}}
\newlabel{sub@fig:Cat}{{(j)}{4}{Subfigure 1(j)\relax }{subfigure.1.10}{}}
\newlabel{fig:Cat_mod}{{1(k)}{4}{Subfigure 1(k)}{subfigure.1.11}{}}
\newlabel{sub@fig:Cat_mod}{{(k)}{4}{Subfigure 1(k)\relax }{subfigure.1.11}{}}
\newlabel{fig:Cat_diff}{{1(l)}{4}{Subfigure 1(l)}{subfigure.1.12}{}}
\newlabel{sub@fig:Cat_diff}{{(l)}{4}{Subfigure 1(l)\relax }{subfigure.1.12}{}}
\@writefile{lof}{\contentsline {figure}{\numberline {1}{\ignorespaces Adversarial examples}}{4}{figure.1}}
\@writefile{lof}{\contentsline {subfigure}{\numberline{(a)}{\ignorespaces {Peppers; op: Peppers, p=0.19}}}{4}{figure.1}}
\@writefile{lof}{\contentsline {subfigure}{\numberline{(b)}{\ignorespaces {Modified Peppers; op: Space Ship, p=0.999}}}{4}{figure.1}}
\@writefile{lof}{\contentsline {subfigure}{\numberline{(c)}{\ignorespaces {Difference Image}}}{4}{figure.1}}
\@writefile{lof}{\contentsline {subfigure}{\numberline{(d)}{\ignorespaces {Bus; op: Coach, p=0.22}}}{4}{figure.1}}
\@writefile{lof}{\contentsline {subfigure}{\numberline{(e)}{\ignorespaces {Modified Bus; op: Space Ship, p=0.999}}}{4}{figure.1}}
\@writefile{lof}{\contentsline {subfigure}{\numberline{(f)}{\ignorespaces {Difference Image}}}{4}{figure.1}}
\@writefile{lof}{\contentsline {subfigure}{\numberline{(g)}{\ignorespaces {Baby, op: Crib, p=0.10}}}{4}{figure.1}}
\@writefile{lof}{\contentsline {subfigure}{\numberline{(h)}{\ignorespaces {Modified Baby; op: Space Ship, p=0.999}}}{4}{figure.1}}
\@writefile{lof}{\contentsline {subfigure}{\numberline{(i)}{\ignorespaces {Difference Image}}}{4}{figure.1}}
\@writefile{lof}{\contentsline {subfigure}{\numberline{(j)}{\ignorespaces {Cat, op: cat, p=0.3}}}{4}{figure.1}}
\@writefile{lof}{\contentsline {subfigure}{\numberline{(k)}{\ignorespaces {Modified Cat; op: Church, p=0.999}}}{4}{figure.1}}
\@writefile{lof}{\contentsline {subfigure}{\numberline{(l)}{\ignorespaces {Difference Image}}}{4}{figure.1}}
\newlabel{fig:cat_mod1}{{2(a)}{5}{Subfigure 2(a)}{subfigure.2.1}{}}
\newlabel{sub@fig:cat_mod1}{{(a)}{5}{Subfigure 2(a)\relax }{subfigure.2.1}{}}
\newlabel{fig:cat_mod2}{{2(b)}{5}{Subfigure 2(b)}{subfigure.2.2}{}}
\newlabel{sub@fig:cat_mod2}{{(b)}{5}{Subfigure 2(b)\relax }{subfigure.2.2}{}}
\newlabel{fig:cat_mod3}{{2(c)}{5}{Subfigure 2(c)}{subfigure.2.3}{}}
\newlabel{sub@fig:cat_mod3}{{(c)}{5}{Subfigure 2(c)\relax }{subfigure.2.3}{}}
\newlabel{fig:cat_mod4}{{2(d)}{5}{Subfigure 2(d)}{subfigure.2.4}{}}
\newlabel{sub@fig:cat_mod4}{{(d)}{5}{Subfigure 2(d)\relax }{subfigure.2.4}{}}
\@writefile{lof}{\contentsline {figure}{\numberline {2}{\ignorespaces Effects of Image modification}}{5}{figure.2}}
\@writefile{lof}{\contentsline {subfigure}{\numberline{(a)}{\ignorespaces {Image flipping}}}{5}{figure.2}}
\@writefile{lof}{\contentsline {subfigure}{\numberline{(b)}{\ignorespaces {Image crop}}}{5}{figure.2}}
\@writefile{lof}{\contentsline {subfigure}{\numberline{(c)}{\ignorespaces {Image rotation}}}{5}{figure.2}}
\@writefile{lof}{\contentsline {subfigure}{\numberline{(d)}{\ignorespaces {Gray Image}}}{5}{figure.2}}
\@writefile{lof}{\contentsline {figure}{\numberline {3}{\ignorespaces Left: The environment with states super imposed. Right: Garl starts at the entrance of the maze (state 3) and he wants to get to its exit (state 79) without being eaten by a dragon.}}{6}{figure.3}}
\newlabel{fig:Norm_Q1}{{4(a)}{8}{Subfigure 4(a)}{subfigure.4.1}{}}
\newlabel{sub@fig:Norm_Q1}{{(a)}{8}{Subfigure 4(a)\relax }{subfigure.4.1}{}}
\newlabel{fig:State_Fig}{{4(b)}{8}{Subfigure 4(b)}{subfigure.4.2}{}}
\newlabel{sub@fig:State_Fig}{{(b)}{8}{Subfigure 4(b)\relax }{subfigure.4.2}{}}
\@writefile{lof}{\contentsline {figure}{\numberline {4}{\ignorespaces Norm difference and State Space}}{8}{figure.4}}
\@writefile{lof}{\contentsline {subfigure}{\numberline{(a)}{\ignorespaces {Q Table Norm}}}{8}{figure.4}}
\@writefile{lof}{\contentsline {subfigure}{\numberline{(b)}{\ignorespaces {}}}{8}{figure.4}}
\newlabel{fig:Norm_Q2_r1}{{5(a)}{10}{Subfigure 5(a)}{subfigure.5.1}{}}
\newlabel{sub@fig:Norm_Q2_r1}{{(a)}{10}{Subfigure 5(a)\relax }{subfigure.5.1}{}}
\newlabel{fig:State_Fig_Q2_r1}{{5(b)}{10}{Subfigure 5(b)}{subfigure.5.2}{}}
\newlabel{sub@fig:State_Fig_Q2_r1}{{(b)}{10}{Subfigure 5(b)\relax }{subfigure.5.2}{}}
\newlabel{fig:Norm_Q2_r1}{{5(c)}{10}{Subfigure 5(c)}{subfigure.5.3}{}}
\newlabel{sub@fig:Norm_Q2_r1}{{(c)}{10}{Subfigure 5(c)\relax }{subfigure.5.3}{}}
\newlabel{fig:State_Fig_Q2_r1}{{5(d)}{10}{Subfigure 5(d)}{subfigure.5.4}{}}
\newlabel{sub@fig:State_Fig_Q2_r1}{{(d)}{10}{Subfigure 5(d)\relax }{subfigure.5.4}{}}
\@writefile{lof}{\contentsline {figure}{\numberline {5}{\ignorespaces Route and Q weight differences for Part 2}}{10}{figure.5}}
\@writefile{lof}{\contentsline {subfigure}{\numberline{(a)}{\ignorespaces {Q Table Norm - Route 1}}}{10}{figure.5}}
\@writefile{lof}{\contentsline {subfigure}{\numberline{(b)}{\ignorespaces {}}}{10}{figure.5}}
\@writefile{lof}{\contentsline {subfigure}{\numberline{(c)}{\ignorespaces {Q Table Norm - Route 2}}}{10}{figure.5}}
\@writefile{lof}{\contentsline {subfigure}{\numberline{(d)}{\ignorespaces {}}}{10}{figure.5}}
\newlabel{fig:Norm_Q3}{{6(a)}{12}{Subfigure 6(a)}{subfigure.6.1}{}}
\newlabel{sub@fig:Norm_Q3}{{(a)}{12}{Subfigure 6(a)\relax }{subfigure.6.1}{}}
\newlabel{fig:State_Fig_Q3}{{6(b)}{12}{Subfigure 6(b)}{subfigure.6.2}{}}
\newlabel{sub@fig:State_Fig_Q3}{{(b)}{12}{Subfigure 6(b)\relax }{subfigure.6.2}{}}
\@writefile{lof}{\contentsline {figure}{\numberline {6}{\ignorespaces Route and Q weight differences for Part 3}}{12}{figure.6}}
\@writefile{lof}{\contentsline {subfigure}{\numberline{(a)}{\ignorespaces {Q Weight matrix difference norm}}}{12}{figure.6}}
\@writefile{lof}{\contentsline {subfigure}{\numberline{(b)}{\ignorespaces {State space}}}{12}{figure.6}}
\newlabel{fig:Norm_Q4}{{7(a)}{13}{Subfigure 7(a)}{subfigure.7.1}{}}
\newlabel{sub@fig:Norm_Q4}{{(a)}{13}{Subfigure 7(a)\relax }{subfigure.7.1}{}}
\newlabel{fig:State_Fig_Q4}{{7(b)}{13}{Subfigure 7(b)}{subfigure.7.2}{}}
\newlabel{sub@fig:State_Fig_Q4}{{(b)}{13}{Subfigure 7(b)\relax }{subfigure.7.2}{}}
\@writefile{lof}{\contentsline {figure}{\numberline {7}{\ignorespaces Route and Q weight differences for Part 4}}{13}{figure.7}}
\@writefile{lof}{\contentsline {subfigure}{\numberline{(a)}{\ignorespaces {Q Weight matrix difference norm}}}{13}{figure.7}}
\@writefile{lof}{\contentsline {subfigure}{\numberline{(b)}{\ignorespaces {State space}}}{13}{figure.7}}
