\relax 
\providecommand\hyper@newdestlabel[2]{}
\providecommand\HyperFirstAtBeginDocument{\AtBeginDocument}
\HyperFirstAtBeginDocument{\ifx\hyper@anchor\@undefined
\global\let\oldcontentsline\contentsline
\gdef\contentsline#1#2#3#4{\oldcontentsline{#1}{#2}{#3}}
\global\let\oldnewlabel\newlabel
\gdef\newlabel#1#2{\newlabelxx{#1}#2}
\gdef\newlabelxx#1#2#3#4#5#6{\oldnewlabel{#1}{{#2}{#3}}}
\AtEndDocument{\ifx\hyper@anchor\@undefined
\let\contentsline\oldcontentsline
\let\newlabel\oldnewlabel
\fi}
\fi}
\global\let\hyper@last\relax 
\gdef\HyperFirstAtBeginDocument#1{#1}
\providecommand\HyField@AuxAddToFields[1]{}
\providecommand\HyField@AuxAddToCoFields[2]{}
\select@language{english}
\@writefile{toc}{\select@language{english}}
\@writefile{lof}{\select@language{english}}
\@writefile{lot}{\select@language{english}}
\newlabel{exp1}{{2}{2}{Part 1 (7 points)}{equation.0.2}{}}
\@writefile{lof}{\contentsline {figure}{\numberline {1}{\ignorespaces Note that [Green] is the testing loss/MPCA while [Blue] is the training loss\relax }}{3}{figure.caption.8}}
\@writefile{lot}{\contentsline {table}{\numberline {1}{\ignorespaces Confusion Matrix - Iris dataset. \textbf  {Rows}: Ground Truth. \textbf  {Columns}: Predicted class\relax }}{4}{table.caption.9}}
\providecommand*\caption@xref[2]{\@setref\relax\@undefined{#1}}
\newlabel{confusion_mat_1}{{1}{4}{Confusion Matrix - Iris dataset. \textbf {Rows}: Ground Truth. \textbf {Columns}: Predicted class\relax }{table.caption.9}{}}
\newlabel{fig:DB_1}{{2a}{4}{NN Decision Boundary for 0 Hidden Layers\relax }{figure.caption.11}{}}
\newlabel{sub@fig:DB_1}{{a}{4}{NN Decision Boundary for 0 Hidden Layers\relax }{figure.caption.11}{}}
\newlabel{fig:DB_2}{{2b}{4}{NN Decision Boundary for 4 Hidden Layers\relax }{figure.caption.11}{}}
\newlabel{sub@fig:DB_2}{{b}{4}{NN Decision Boundary for 4 Hidden Layers\relax }{figure.caption.11}{}}
\@writefile{lof}{\contentsline {figure}{\numberline {2}{\ignorespaces Decision Boundaries\relax }}{4}{figure.caption.11}}
\newlabel{my-label}{{\caption@xref {my-label}{ on input line 235}}{5}{Part 2 (20 points)}{table.caption.16}{}}
\@writefile{lot}{\contentsline {table}{\numberline {2}{\ignorespaces Confusion Matrix. CIFAR-10\relax }}{5}{table.caption.16}}
\@writefile{lof}{\contentsline {figure}{\numberline {3}{\ignorespaces 3 images from the first batch of each category in CIFAR-10.\relax }}{5}{figure.caption.14}}
\newlabel{CIFAR10}{{3}{5}{3 images from the first batch of each category in CIFAR-10.\relax }{figure.caption.14}{}}
\gdef\minted@oldcachelist{,
  default.pygstyle,
  default-pyg-prefix.pygstyle,
  6D3C7F94DB330FDC60FD0DEB361C185F2E1D8EFD391663A9A2979089A1CFBF92.pygtex,
  1B5C1EB3FAAC50F73E392DBFE37A88D52E1D8EFD391663A9A2979089A1CFBF92.pygtex}
