\relax 
\providecommand\hyper@newdestlabel[2]{}
\providecommand\HyperFirstAtBeginDocument{\AtBeginDocument}
\HyperFirstAtBeginDocument{\ifx\hyper@anchor\@undefined
\global\let\oldcontentsline\contentsline
\gdef\contentsline#1#2#3#4{\oldcontentsline{#1}{#2}{#3}}
\global\let\oldnewlabel\newlabel
\gdef\newlabel#1#2{\newlabelxx{#1}#2}
\gdef\newlabelxx#1#2#3#4#5#6{\oldnewlabel{#1}{{#2}{#3}}}
\AtEndDocument{\ifx\hyper@anchor\@undefined
\let\contentsline\oldcontentsline
\let\newlabel\oldnewlabel
\fi}
\fi}
\global\let\hyper@last\relax 
\gdef\HyperFirstAtBeginDocument#1{#1}
\providecommand\HyField@AuxAddToFields[1]{}
\providecommand\HyField@AuxAddToCoFields[2]{}
\providecommand*\caption@xref[2]{\@setref\relax\@undefined{#1}}
\newlabel{fig:fig_1}{{1a}{5}{1 Hidden Layer NN Decision Boundary for ReLU Hidden Units\relax }{figure.caption.8}{}}
\newlabel{sub@fig:fig_1}{{a}{5}{1 Hidden Layer NN Decision Boundary for ReLU Hidden Units\relax }{figure.caption.8}{}}
\newlabel{fig:fig_2}{{1b}{5}{Train and Test Loss as a function of Epochs\relax }{figure.caption.8}{}}
\newlabel{sub@fig:fig_2}{{b}{5}{Train and Test Loss as a function of Epochs\relax }{figure.caption.8}{}}
\@writefile{lof}{\contentsline {figure}{\numberline {1}{\ignorespaces Output from NN with ReLU hidden units\relax }}{5}{figure.caption.8}}
\@writefile{lof}{\contentsline {figure}{\numberline {2}{\ignorespaces Train and Test MPCA as a function of Epochs\relax }}{5}{figure.caption.9}}
\newlabel{fig:fig_3}{{2}{5}{Train and Test MPCA as a function of Epochs\relax }{figure.caption.9}{}}
\@writefile{lof}{\contentsline {figure}{\numberline {3}{\ignorespaces Dropout performance as a function of Epochs. XLABEL $\rightarrow $ Epochs. YLABEL $\rightarrow $ Max Testing MPCA\relax }}{6}{figure.caption.11}}
\newlabel{fig:fig_4}{{3}{6}{Dropout performance as a function of Epochs. XLABEL $\rightarrow $ Epochs. YLABEL $\rightarrow $ Max Testing MPCA\relax }{figure.caption.11}{}}
\newlabel{fig:fig_5}{{4a}{8}{Training and Testing MPCA\relax }{figure.caption.15}{}}
\newlabel{sub@fig:fig_5}{{a}{8}{Training and Testing MPCA\relax }{figure.caption.15}{}}
\newlabel{fig:fig_6}{{4b}{8}{Training and Testing Loss\relax }{figure.caption.15}{}}
\newlabel{sub@fig:fig_6}{{b}{8}{Training and Testing Loss\relax }{figure.caption.15}{}}
\@writefile{lof}{\contentsline {figure}{\numberline {4}{\ignorespaces Transfer learning performance\relax }}{8}{figure.caption.15}}
\@writefile{lof}{\contentsline {figure}{\numberline {5}{\ignorespaces Weights of the first Conv layer.\relax }}{9}{figure.caption.18}}
\newlabel{fig:fig_7}{{5}{9}{Weights of the first Conv layer.\relax }{figure.caption.18}{}}
\@writefile{lof}{\contentsline {figure}{\numberline {6}{\ignorespaces Training Loss\relax }}{9}{figure.caption.19}}
\newlabel{fig:fig_8}{{6}{9}{Training Loss\relax }{figure.caption.19}{}}
\@writefile{lof}{\contentsline {figure}{\numberline {7}{\ignorespaces Effect of Batch Normalization for 50 Epochs. XLABEL $\rightarrow $ Epochs. YLABEL $\rightarrow $ Loss\relax }}{11}{figure.caption.21}}
\newlabel{fig:fig_9}{{7}{11}{Effect of Batch Normalization for 50 Epochs. XLABEL $\rightarrow $ Epochs. YLABEL $\rightarrow $ Loss\relax }{figure.caption.21}{}}
\@writefile{lof}{\contentsline {figure}{\numberline {8}{\ignorespaces Performance of my own deeper architecture\relax }}{12}{figure.caption.23}}
\newlabel{fig:fig_10}{{8}{12}{Performance of my own deeper architecture\relax }{figure.caption.23}{}}
\@writefile{lof}{\contentsline {figure}{\numberline {9}{\ignorespaces My own Model: Flow Diagram\relax }}{12}{figure.caption.24}}
\newlabel{fig:fig_11}{{9}{12}{My own Model: Flow Diagram\relax }{figure.caption.24}{}}
